-- Merging decision tree log ---
manifest
ADDED from D:\Projects\OpenGL\01-RTRAndroid\CMD\05-ViewAsObject\app\src\main\AndroidManifest.xml:2:1-22:12
MERGED from [androidx.appcompat:appcompat:1.0.2] C:\Users\avadh\.gradle\caches\transforms-2\files-2.1\12eb4bac34016801b6a64f253c3dfdb1\AndroidManifest.xml:17:1-22:12
MERGED from [androidx.constraintlayout:constraintlayout:1.1.3] C:\Users\avadh\.gradle\caches\transforms-2\files-2.1\f32348be77e09aefe2e882b9159c9e77\AndroidManifest.xml:2:1-11:12
MERGED from [androidx.fragment:fragment:1.0.0] C:\Users\avadh\.gradle\caches\transforms-2\files-2.1\caad2c828d5546d240ecbea43bba76c1\AndroidManifest.xml:17:1-22:12
MERGED from [androidx.vectordrawable:vectordrawable-animated:1.0.0] C:\Users\avadh\.gradle\caches\transforms-2\files-2.1\6b7512d9ff72619f33b8881b4f33b26a\AndroidManifest.xml:17:1-22:12
MERGED from [androidx.legacy:legacy-support-core-ui:1.0.0] C:\Users\avadh\.gradle\caches\transforms-2\files-2.1\0594823aa33d439750734604e9ea25e3\AndroidManifest.xml:17:1-22:12
MERGED from [androidx.legacy:legacy-support-core-utils:1.0.0] C:\Users\avadh\.gradle\caches\transforms-2\files-2.1\df32b97b97aca975fae65dbfde9150e2\AndroidManifest.xml:17:1-22:12
MERGED from [androidx.vectordrawable:vectordrawable:1.0.1] C:\Users\avadh\.gradle\caches\transforms-2\files-2.1\e07a84e6e6da5ed52a9c720531c7c962\AndroidManifest.xml:17:1-22:12
MERGED from [androidx.loader:loader:1.0.0] C:\Users\avadh\.gradle\caches\transforms-2\files-2.1\b700c23ca47b8e44629a9d0889322d79\AndroidManifest.xml:17:1-22:12
MERGED from [androidx.viewpager:viewpager:1.0.0] C:\Users\avadh\.gradle\caches\transforms-2\files-2.1\144fd7bc90dc0db9be910746513e0428\AndroidManifest.xml:17:1-22:12
MERGED from [androidx.coordinatorlayout:coordinatorlayout:1.0.0] C:\Users\avadh\.gradle\caches\transforms-2\files-2.1\d12f7fa1d9b26e528cac72ef0a9eae74\AndroidManifest.xml:17:1-22:12
MERGED from [androidx.drawerlayout:drawerlayout:1.0.0] C:\Users\avadh\.gradle\caches\transforms-2\files-2.1\7d04652c2ef1e98ca46fa761a41fd0b5\AndroidManifest.xml:17:1-22:12
MERGED from [androidx.slidingpanelayout:slidingpanelayout:1.0.0] C:\Users\avadh\.gradle\caches\transforms-2\files-2.1\006b72df13245b33e54d82f8b53cf512\AndroidManifest.xml:17:1-22:12
MERGED from [androidx.customview:customview:1.0.0] C:\Users\avadh\.gradle\caches\transforms-2\files-2.1\53c36abeee508b92d9197610766bf49c\AndroidManifest.xml:17:1-22:12
MERGED from [androidx.swiperefreshlayout:swiperefreshlayout:1.0.0] C:\Users\avadh\.gradle\caches\transforms-2\files-2.1\6ed82ca765c41c90199d3a2accb3e3ad\AndroidManifest.xml:17:1-22:12
MERGED from [androidx.asynclayoutinflater:asynclayoutinflater:1.0.0] C:\Users\avadh\.gradle\caches\transforms-2\files-2.1\ba6d102e3794cdeae4d23962165438bd\AndroidManifest.xml:17:1-22:12
MERGED from [androidx.core:core:1.0.1] C:\Users\avadh\.gradle\caches\transforms-2\files-2.1\5be0b193b575f8a6c4602bb602927339\AndroidManifest.xml:17:1-24:12
MERGED from [androidx.versionedparcelable:versionedparcelable:1.0.0] C:\Users\avadh\.gradle\caches\transforms-2\files-2.1\e6f81dc9de538ce6e4cc93fc593545e2\AndroidManifest.xml:17:1-25:12
MERGED from [androidx.cursoradapter:cursoradapter:1.0.0] C:\Users\avadh\.gradle\caches\transforms-2\files-2.1\ca48ef6c47fd2a007286570f2da9fc5a\AndroidManifest.xml:17:1-22:12
MERGED from [androidx.lifecycle:lifecycle-runtime:2.0.0] C:\Users\avadh\.gradle\caches\transforms-2\files-2.1\afb919087db6ee5a34fc13876305fb2a\AndroidManifest.xml:17:1-22:12
MERGED from [androidx.documentfile:documentfile:1.0.0] C:\Users\avadh\.gradle\caches\transforms-2\files-2.1\ef4ed5456221163b92edc45e01b504e4\AndroidManifest.xml:17:1-22:12
MERGED from [androidx.localbroadcastmanager:localbroadcastmanager:1.0.0] C:\Users\avadh\.gradle\caches\transforms-2\files-2.1\7298f46e5dd9bbdc49c92709cebc4aa2\AndroidManifest.xml:17:1-22:12
MERGED from [androidx.print:print:1.0.0] C:\Users\avadh\.gradle\caches\transforms-2\files-2.1\05d1638b0d60f6eb8b4d6278047038f2\AndroidManifest.xml:17:1-22:12
MERGED from [androidx.lifecycle:lifecycle-viewmodel:2.0.0] C:\Users\avadh\.gradle\caches\transforms-2\files-2.1\012b4fb98037021532e231547a794ea1\AndroidManifest.xml:17:1-22:12
MERGED from [androidx.lifecycle:lifecycle-livedata:2.0.0] C:\Users\avadh\.gradle\caches\transforms-2\files-2.1\cedcf58ca08193de6a96fd6fd48655ed\AndroidManifest.xml:17:1-22:12
MERGED from [androidx.lifecycle:lifecycle-livedata-core:2.0.0] C:\Users\avadh\.gradle\caches\transforms-2\files-2.1\c4287df54bdc18295559873d89ad0802\AndroidManifest.xml:17:1-22:12
MERGED from [androidx.arch.core:core-runtime:2.0.0] C:\Users\avadh\.gradle\caches\transforms-2\files-2.1\fefeed24ff53b1ba0a0e9adc75901a41\AndroidManifest.xml:17:1-22:12
MERGED from [androidx.interpolator:interpolator:1.0.0] C:\Users\avadh\.gradle\caches\transforms-2\files-2.1\32ce65f4c3c3e723e86af024c432ec02\AndroidManifest.xml:17:1-22:12
	package
		ADDED from D:\Projects\OpenGL\01-RTRAndroid\CMD\05-ViewAsObject\app\src\main\AndroidManifest.xml:3:5-35
	xmlns:android
		ADDED from D:\Projects\OpenGL\01-RTRAndroid\CMD\05-ViewAsObject\app\src\main\AndroidManifest.xml:2:11-69
uses-sdk
ADDED from D:\Projects\OpenGL\01-RTRAndroid\CMD\05-ViewAsObject\app\src\main\AndroidManifest.xml:5:3-7:36
MERGED from [androidx.appcompat:appcompat:1.0.2] C:\Users\avadh\.gradle\caches\transforms-2\files-2.1\12eb4bac34016801b6a64f253c3dfdb1\AndroidManifest.xml:20:5-44
MERGED from [androidx.appcompat:appcompat:1.0.2] C:\Users\avadh\.gradle\caches\transforms-2\files-2.1\12eb4bac34016801b6a64f253c3dfdb1\AndroidManifest.xml:20:5-44
MERGED from [androidx.constraintlayout:constraintlayout:1.1.3] C:\Users\avadh\.gradle\caches\transforms-2\files-2.1\f32348be77e09aefe2e882b9159c9e77\AndroidManifest.xml:5:5-7:41
MERGED from [androidx.constraintlayout:constraintlayout:1.1.3] C:\Users\avadh\.gradle\caches\transforms-2\files-2.1\f32348be77e09aefe2e882b9159c9e77\AndroidManifest.xml:5:5-7:41
MERGED from [androidx.fragment:fragment:1.0.0] C:\Users\avadh\.gradle\caches\transforms-2\files-2.1\caad2c828d5546d240ecbea43bba76c1\AndroidManifest.xml:20:5-44
MERGED from [androidx.fragment:fragment:1.0.0] C:\Users\avadh\.gradle\caches\transforms-2\files-2.1\caad2c828d5546d240ecbea43bba76c1\AndroidManifest.xml:20:5-44
MERGED from [androidx.vectordrawable:vectordrawable-animated:1.0.0] C:\Users\avadh\.gradle\caches\transforms-2\files-2.1\6b7512d9ff72619f33b8881b4f33b26a\AndroidManifest.xml:20:5-44
MERGED from [androidx.vectordrawable:vectordrawable-animated:1.0.0] C:\Users\avadh\.gradle\caches\transforms-2\files-2.1\6b7512d9ff72619f33b8881b4f33b26a\AndroidManifest.xml:20:5-44
MERGED from [androidx.legacy:legacy-support-core-ui:1.0.0] C:\Users\avadh\.gradle\caches\transforms-2\files-2.1\0594823aa33d439750734604e9ea25e3\AndroidManifest.xml:20:5-44
MERGED from [androidx.legacy:legacy-support-core-ui:1.0.0] C:\Users\avadh\.gradle\caches\transforms-2\files-2.1\0594823aa33d439750734604e9ea25e3\AndroidManifest.xml:20:5-44
MERGED from [androidx.legacy:legacy-support-core-utils:1.0.0] C:\Users\avadh\.gradle\caches\transforms-2\files-2.1\df32b97b97aca975fae65dbfde9150e2\AndroidManifest.xml:20:5-44
MERGED from [androidx.legacy:legacy-support-core-utils:1.0.0] C:\Users\avadh\.gradle\caches\transforms-2\files-2.1\df32b97b97aca975fae65dbfde9150e2\AndroidManifest.xml:20:5-44
MERGED from [androidx.vectordrawable:vectordrawable:1.0.1] C:\Users\avadh\.gradle\caches\transforms-2\files-2.1\e07a84e6e6da5ed52a9c720531c7c962\AndroidManifest.xml:20:5-44
MERGED from [androidx.vectordrawable:vectordrawable:1.0.1] C:\Users\avadh\.gradle\caches\transforms-2\files-2.1\e07a84e6e6da5ed52a9c720531c7c962\AndroidManifest.xml:20:5-44
MERGED from [androidx.loader:loader:1.0.0] C:\Users\avadh\.gradle\caches\transforms-2\files-2.1\b700c23ca47b8e44629a9d0889322d79\AndroidManifest.xml:20:5-44
MERGED from [androidx.loader:loader:1.0.0] C:\Users\avadh\.gradle\caches\transforms-2\files-2.1\b700c23ca47b8e44629a9d0889322d79\AndroidManifest.xml:20:5-44
MERGED from [androidx.viewpager:viewpager:1.0.0] C:\Users\avadh\.gradle\caches\transforms-2\files-2.1\144fd7bc90dc0db9be910746513e0428\AndroidManifest.xml:20:5-44
MERGED from [androidx.viewpager:viewpager:1.0.0] C:\Users\avadh\.gradle\caches\transforms-2\files-2.1\144fd7bc90dc0db9be910746513e0428\AndroidManifest.xml:20:5-44
MERGED from [androidx.coordinatorlayout:coordinatorlayout:1.0.0] C:\Users\avadh\.gradle\caches\transforms-2\files-2.1\d12f7fa1d9b26e528cac72ef0a9eae74\AndroidManifest.xml:20:5-44
MERGED from [androidx.coordinatorlayout:coordinatorlayout:1.0.0] C:\Users\avadh\.gradle\caches\transforms-2\files-2.1\d12f7fa1d9b26e528cac72ef0a9eae74\AndroidManifest.xml:20:5-44
MERGED from [androidx.drawerlayout:drawerlayout:1.0.0] C:\Users\avadh\.gradle\caches\transforms-2\files-2.1\7d04652c2ef1e98ca46fa761a41fd0b5\AndroidManifest.xml:20:5-44
MERGED from [androidx.drawerlayout:drawerlayout:1.0.0] C:\Users\avadh\.gradle\caches\transforms-2\files-2.1\7d04652c2ef1e98ca46fa761a41fd0b5\AndroidManifest.xml:20:5-44
MERGED from [androidx.slidingpanelayout:slidingpanelayout:1.0.0] C:\Users\avadh\.gradle\caches\transforms-2\files-2.1\006b72df13245b33e54d82f8b53cf512\AndroidManifest.xml:20:5-44
MERGED from [androidx.slidingpanelayout:slidingpanelayout:1.0.0] C:\Users\avadh\.gradle\caches\transforms-2\files-2.1\006b72df13245b33e54d82f8b53cf512\AndroidManifest.xml:20:5-44
MERGED from [androidx.customview:customview:1.0.0] C:\Users\avadh\.gradle\caches\transforms-2\files-2.1\53c36abeee508b92d9197610766bf49c\AndroidManifest.xml:20:5-44
MERGED from [androidx.customview:customview:1.0.0] C:\Users\avadh\.gradle\caches\transforms-2\files-2.1\53c36abeee508b92d9197610766bf49c\AndroidManifest.xml:20:5-44
MERGED from [androidx.swiperefreshlayout:swiperefreshlayout:1.0.0] C:\Users\avadh\.gradle\caches\transforms-2\files-2.1\6ed82ca765c41c90199d3a2accb3e3ad\AndroidManifest.xml:20:5-44
MERGED from [androidx.swiperefreshlayout:swiperefreshlayout:1.0.0] C:\Users\avadh\.gradle\caches\transforms-2\files-2.1\6ed82ca765c41c90199d3a2accb3e3ad\AndroidManifest.xml:20:5-44
MERGED from [androidx.asynclayoutinflater:asynclayoutinflater:1.0.0] C:\Users\avadh\.gradle\caches\transforms-2\files-2.1\ba6d102e3794cdeae4d23962165438bd\AndroidManifest.xml:20:5-44
MERGED from [androidx.asynclayoutinflater:asynclayoutinflater:1.0.0] C:\Users\avadh\.gradle\caches\transforms-2\files-2.1\ba6d102e3794cdeae4d23962165438bd\AndroidManifest.xml:20:5-44
MERGED from [androidx.core:core:1.0.1] C:\Users\avadh\.gradle\caches\transforms-2\files-2.1\5be0b193b575f8a6c4602bb602927339\AndroidManifest.xml:20:5-44
MERGED from [androidx.core:core:1.0.1] C:\Users\avadh\.gradle\caches\transforms-2\files-2.1\5be0b193b575f8a6c4602bb602927339\AndroidManifest.xml:20:5-44
MERGED from [androidx.versionedparcelable:versionedparcelable:1.0.0] C:\Users\avadh\.gradle\caches\transforms-2\files-2.1\e6f81dc9de538ce6e4cc93fc593545e2\AndroidManifest.xml:20:5-44
MERGED from [androidx.versionedparcelable:versionedparcelable:1.0.0] C:\Users\avadh\.gradle\caches\transforms-2\files-2.1\e6f81dc9de538ce6e4cc93fc593545e2\AndroidManifest.xml:20:5-44
MERGED from [androidx.cursoradapter:cursoradapter:1.0.0] C:\Users\avadh\.gradle\caches\transforms-2\files-2.1\ca48ef6c47fd2a007286570f2da9fc5a\AndroidManifest.xml:20:5-44
MERGED from [androidx.cursoradapter:cursoradapter:1.0.0] C:\Users\avadh\.gradle\caches\transforms-2\files-2.1\ca48ef6c47fd2a007286570f2da9fc5a\AndroidManifest.xml:20:5-44
MERGED from [androidx.lifecycle:lifecycle-runtime:2.0.0] C:\Users\avadh\.gradle\caches\transforms-2\files-2.1\afb919087db6ee5a34fc13876305fb2a\AndroidManifest.xml:20:5-44
MERGED from [androidx.lifecycle:lifecycle-runtime:2.0.0] C:\Users\avadh\.gradle\caches\transforms-2\files-2.1\afb919087db6ee5a34fc13876305fb2a\AndroidManifest.xml:20:5-44
MERGED from [androidx.documentfile:documentfile:1.0.0] C:\Users\avadh\.gradle\caches\transforms-2\files-2.1\ef4ed5456221163b92edc45e01b504e4\AndroidManifest.xml:20:5-44
MERGED from [androidx.documentfile:documentfile:1.0.0] C:\Users\avadh\.gradle\caches\transforms-2\files-2.1\ef4ed5456221163b92edc45e01b504e4\AndroidManifest.xml:20:5-44
MERGED from [androidx.localbroadcastmanager:localbroadcastmanager:1.0.0] C:\Users\avadh\.gradle\caches\transforms-2\files-2.1\7298f46e5dd9bbdc49c92709cebc4aa2\AndroidManifest.xml:20:5-44
MERGED from [androidx.localbroadcastmanager:localbroadcastmanager:1.0.0] C:\Users\avadh\.gradle\caches\transforms-2\files-2.1\7298f46e5dd9bbdc49c92709cebc4aa2\AndroidManifest.xml:20:5-44
MERGED from [androidx.print:print:1.0.0] C:\Users\avadh\.gradle\caches\transforms-2\files-2.1\05d1638b0d60f6eb8b4d6278047038f2\AndroidManifest.xml:20:5-44
MERGED from [androidx.print:print:1.0.0] C:\Users\avadh\.gradle\caches\transforms-2\files-2.1\05d1638b0d60f6eb8b4d6278047038f2\AndroidManifest.xml:20:5-44
MERGED from [androidx.lifecycle:lifecycle-viewmodel:2.0.0] C:\Users\avadh\.gradle\caches\transforms-2\files-2.1\012b4fb98037021532e231547a794ea1\AndroidManifest.xml:20:5-44
MERGED from [androidx.lifecycle:lifecycle-viewmodel:2.0.0] C:\Users\avadh\.gradle\caches\transforms-2\files-2.1\012b4fb98037021532e231547a794ea1\AndroidManifest.xml:20:5-44
MERGED from [androidx.lifecycle:lifecycle-livedata:2.0.0] C:\Users\avadh\.gradle\caches\transforms-2\files-2.1\cedcf58ca08193de6a96fd6fd48655ed\AndroidManifest.xml:20:5-44
MERGED from [androidx.lifecycle:lifecycle-livedata:2.0.0] C:\Users\avadh\.gradle\caches\transforms-2\files-2.1\cedcf58ca08193de6a96fd6fd48655ed\AndroidManifest.xml:20:5-44
MERGED from [androidx.lifecycle:lifecycle-livedata-core:2.0.0] C:\Users\avadh\.gradle\caches\transforms-2\files-2.1\c4287df54bdc18295559873d89ad0802\AndroidManifest.xml:20:5-44
MERGED from [androidx.lifecycle:lifecycle-livedata-core:2.0.0] C:\Users\avadh\.gradle\caches\transforms-2\files-2.1\c4287df54bdc18295559873d89ad0802\AndroidManifest.xml:20:5-44
MERGED from [androidx.arch.core:core-runtime:2.0.0] C:\Users\avadh\.gradle\caches\transforms-2\files-2.1\fefeed24ff53b1ba0a0e9adc75901a41\AndroidManifest.xml:20:5-44
MERGED from [androidx.arch.core:core-runtime:2.0.0] C:\Users\avadh\.gradle\caches\transforms-2\files-2.1\fefeed24ff53b1ba0a0e9adc75901a41\AndroidManifest.xml:20:5-44
MERGED from [androidx.interpolator:interpolator:1.0.0] C:\Users\avadh\.gradle\caches\transforms-2\files-2.1\32ce65f4c3c3e723e86af024c432ec02\AndroidManifest.xml:20:5-44
MERGED from [androidx.interpolator:interpolator:1.0.0] C:\Users\avadh\.gradle\caches\transforms-2\files-2.1\32ce65f4c3c3e723e86af024c432ec02\AndroidManifest.xml:20:5-44
	android:targetSdkVersion
		ADDED from D:\Projects\OpenGL\01-RTRAndroid\CMD\05-ViewAsObject\app\src\main\AndroidManifest.xml:6:7-36
	android:minSdkVersion
		ADDED from D:\Projects\OpenGL\01-RTRAndroid\CMD\05-ViewAsObject\app\src\main\AndroidManifest.xml:7:7-33
application
ADDED from D:\Projects\OpenGL\01-RTRAndroid\CMD\05-ViewAsObject\app\src\main\AndroidManifest.xml:8:3-20:19
MERGED from [androidx.constraintlayout:constraintlayout:1.1.3] C:\Users\avadh\.gradle\caches\transforms-2\files-2.1\f32348be77e09aefe2e882b9159c9e77\AndroidManifest.xml:9:5-20
MERGED from [androidx.constraintlayout:constraintlayout:1.1.3] C:\Users\avadh\.gradle\caches\transforms-2\files-2.1\f32348be77e09aefe2e882b9159c9e77\AndroidManifest.xml:9:5-20
MERGED from [androidx.core:core:1.0.1] C:\Users\avadh\.gradle\caches\transforms-2\files-2.1\5be0b193b575f8a6c4602bb602927339\AndroidManifest.xml:22:5-89
MERGED from [androidx.core:core:1.0.1] C:\Users\avadh\.gradle\caches\transforms-2\files-2.1\5be0b193b575f8a6c4602bb602927339\AndroidManifest.xml:22:5-89
MERGED from [androidx.versionedparcelable:versionedparcelable:1.0.0] C:\Users\avadh\.gradle\caches\transforms-2\files-2.1\e6f81dc9de538ce6e4cc93fc593545e2\AndroidManifest.xml:22:5-23:19
MERGED from [androidx.versionedparcelable:versionedparcelable:1.0.0] C:\Users\avadh\.gradle\caches\transforms-2\files-2.1\e6f81dc9de538ce6e4cc93fc593545e2\AndroidManifest.xml:22:5-23:19
	android:appComponentFactory
		ADDED from [androidx.core:core:1.0.1] C:\Users\avadh\.gradle\caches\transforms-2\files-2.1\5be0b193b575f8a6c4602bb602927339\AndroidManifest.xml:22:18-86
	android:label
		ADDED from D:\Projects\OpenGL\01-RTRAndroid\CMD\05-ViewAsObject\app\src\main\AndroidManifest.xml:10:9-41
	android:roundIcon
		ADDED from D:\Projects\OpenGL\01-RTRAndroid\CMD\05-ViewAsObject\app\src\main\AndroidManifest.xml:11:9-54
	android:icon
		ADDED from D:\Projects\OpenGL\01-RTRAndroid\CMD\05-ViewAsObject\app\src\main\AndroidManifest.xml:9:9-43
	android:theme
		ADDED from D:\Projects\OpenGL\01-RTRAndroid\CMD\05-ViewAsObject\app\src\main\AndroidManifest.xml:12:9-47
activity#com.rtr.viewasobject.MainActivity
ADDED from D:\Projects\OpenGL\01-RTRAndroid\CMD\05-ViewAsObject\app\src\main\AndroidManifest.xml:13:9-19:20
	android:name
		ADDED from D:\Projects\OpenGL\01-RTRAndroid\CMD\05-ViewAsObject\app\src\main\AndroidManifest.xml:13:19-47
intent-filter#action:name:android.intent.action.MAIN+category:name:android.intent.category.LAUNCHER
ADDED from D:\Projects\OpenGL\01-RTRAndroid\CMD\05-ViewAsObject\app\src\main\AndroidManifest.xml:14:13-18:29
action#android.intent.action.MAIN
ADDED from D:\Projects\OpenGL\01-RTRAndroid\CMD\05-ViewAsObject\app\src\main\AndroidManifest.xml:15:17-69
	android:name
		ADDED from D:\Projects\OpenGL\01-RTRAndroid\CMD\05-ViewAsObject\app\src\main\AndroidManifest.xml:15:25-66
category#android.intent.category.LAUNCHER
ADDED from D:\Projects\OpenGL\01-RTRAndroid\CMD\05-ViewAsObject\app\src\main\AndroidManifest.xml:17:17-77
	android:name
		ADDED from D:\Projects\OpenGL\01-RTRAndroid\CMD\05-ViewAsObject\app\src\main\AndroidManifest.xml:17:27-74
